~move_player
=go_words
idz
pojdz
podejdz
podejsc
podbiegnij
przenies sie
przesun sie
zbliz sie
brnij
czlap sie
draluj
dreptaj
ewakuuj sie
guzdraj sie
idź noga za noga
kieruj się
krocz
kursuj
kustykaj
lez
przemieszcz sie
przebieraj nogami
skieruj sie
spaceruj
przespaceruj sie
zmierzaj
snuj sie
gazuj
pedz na leb na szyje
chodz
wedruj
